Surfer_Visualization/VCD_file_examples/reorganized.vcd
$timescale 1ns $end
$scope module RISC_V_Debug_View $end
$scope module Global $end
  $var wire 1 "! clock $end
  $var wire 32 "* check_res $end
$upscope $end
$scope module Pipeline_Stages $end
$scope module IF $end
$scope module IF_Stage $end
  $var wire 32 h IF_Program_Counter $end
  $var wire 32 , IF_Fetched_Instruction $end
$upscope $end
$scope module IF_Barrier $end
  $var wire 32 "> Program_Counter $end
  $var wire 32 "' Fetched_Instruction $end
$upscope $end
$upscope $end
$scope module -------------------- $end
$upscope $end
$scope module ID $end
$scope module ID_Stage $end
$scope module Decoded_Instruction $end
  $var wire 7 < opcode $end
  $var wire 3 L funct3 $end
  $var wire 7 "_ funct7 $end
  $var wire 5 "/ rs1 $end
  $var wire 5 J rs2 $end
  $var wire 5 . rd $end
  $var wire 8 = io_uop $end
$upscope $end
$scope module Operands_from_RL $end
  $var wire 32 t Operand_A $end
  $var wire 32 "K Operand_B $end
$upscope $end
$upscope $end
$scope module ID_Barrier $end
  $var wire 32 W Operand_A_IDB $end
  $var wire 32 W Operand_B_IDB $end
  $var wire 32 "` rd_IDB $end
  $var wire 5 ` rs1_IDB $end
  $var wire 5 F rs2_IDB $end
  $var wire 8 H uop_IDB $end
  $var wire 64 S_H uop_ascii $end
$upscope $end
$scope module ----------------- $end
$upscope $end
$upscope $end
$scope module EX $end
$scope module EX_Stage $end
  $var wire 32 p ALU_Input_A $end
  $var wire 32 "J ALU_Input_B $end
  $var wire 32 Q ALU_Result $end
  $var wire 8 8 ALU_Result_UOP $end
  $var wire 64 S_8 UOP_ASCII $end
$upscope $end
$scope module EX_Barrier $end
  $var wire 32 "Z ALU_Result_Barrier $end
$upscope $end
$upscope $end
$scope module ---------------- $end
$upscope $end
$scope module MEM $end
$upscope $end
$upscope $end
$upscope $end
$enddefinitions $end
$dumpvars
b00000000000000000000000000000000 t
b00000 J
b00000000000000000000000000000000 "`
b00000000000000000000000000000000 ">
b00000000000000000000000000000000 Q
b00000000000000000000000000000000 p
b00000000000000000000000000000000 "J
b0011111100100000001000000010000000100000001000000010000000100000 S_8
b00000 "/
b00000000 =
b0011111100100000001000000010000000100000001000000010000000100000 S_H
b0000000 "_
b00000000000000000000000000000000 "Z
b0000000 <
b00000000 H
0"!
b00000000000000000000000000000000 W
b00000000000000000000000000000000 h
b00000 .
b00000 `
b000 L
b00000000 8
b00000000000000000000000000000000 "K
b00000000000000000000000000000000 "*
b00000000000000000000000000000000 ,
b00000000000000000000000000000000 "'
b00000 F
$end
#0
b0010011 <
b00010000 =
b00000000000000000000000000010011 "'
b00000000000000000000000000010011 ,
#1
1"!
b00010000 8
b0100000101000100010001000100100100100000001000000010000000100000 S_8
b00010000 H
b0100000101000100010001000100100100100000001000000010000000100000 S_H
#6
0"!
#11
b00101 J
b00000000000000000000000000000100 h
b00000000010100000000000010010011 "'
b00000000000000000000000000000100 ">
1"!
b00000000010100000000000010010011 ,
b00001 .
#16
0"!
#21
b00000000000000000000000000000101 Q
b00000000000000000000000000001000 h
b00000000101000000000000100010011 "'
b00000000000000000000000000001000 ">
1"!
b00000000101000000000000100010011 ,
b00010 .
b00000000000000000000000000000001 "`
b01010 J
b00101 F
b00000000000000000000000000000101 "J
#26
0"!
#31
b00000000000000000000000000001010 Q
b00000000000000000000000000001100 h
b00000000000000000000000000010011 "'
b00000000000000000000000000001100 ">
1"!
b00000000000000000000000000010011 ,
b00000 .
b00000000000000000000000000000010 "`
b00000 J
b00000000000000000000000000000101 "Z
b01010 F
b00000000000000000000000000001010 "J
#36
0"!
#41
b00000000000000000000000000000000 Q
b0110011 <
b00000000000000000000000000010000 h
b00000000001000001000000110110011 "'
b00000000000000000000000000010000 ">
1"!
b00000000001000001000000110110011 ,
b00011 .
b00000001 =
b00000000000000000000000000000000 "`
b00000000000000000000000000001010 "K
b00000000000000000000000000000101 "*
b00010 J
b00000000000000000000000000001010 "Z
b00000 F
b00000000000000000000000000000101 t
b00000000000000000000000000000000 "J
b00001 "/
#46
0"!
#51
b00000000000000000000000000001111 Q
b0100000 "_
b00000000000000000000000000010100 h
b01000000001000001000000110110011 "'
b00000000000000000000000000010100 ">
1"!
b01000000001000001000000110110011 ,
b00001 `
b00000010 =
b00000000000000000000000000000011 "`
b00000000000000000000000000001010 "*
b00000000000000000000000000000000 "Z
b00010 F
b00000001 H
b0100000101000100010001000010000000100000001000000010000000100000 S_H
b00000000000000000000000000001010 "J
b00000000000000000000000000000101 p
b00000001 8
b0100000101000100010001000010000000100000001000000010000000100000 S_8
b00000000000000000000000000000101 W
#56
0"!
#61
b11111111111111111111111111111011 Q
b0000000 "_
b00000000000000000000000000011000 h
b00000000001000001111000110110011 "'
b00000000000000000000000000011000 ">
1"!
b00000000001000001111000110110011 ,
b00000101 =
b00000000000000000000000000000000 "*
b111 L
b00000000000000000000000000001111 "Z
b00000010 H
b0101001101010101010000100010000000100000001000000010000000100000 S_H
b00000010 8
b0101001101010101010000100010000000100000001000000010000000100000 S_8
#66
0"!
#71
b00000000000000000000000000000000 Q
b00000000000000000000000000011100 h
b00000000001000001010000110110011 "'
b00000000000000000000000000011100 ">
1"!
b00000000001000001010000110110011 ,
b00001001 =
b00000000000000000000000000001111 "*
b010 L
b11111111111111111111111111111011 "Z
b00000101 H
b0100000101001110010001000010000000100000001000000010000000100000 S_H
b00000101 8
b0100000101001110010001000010000000100000001000000010000000100000 S_8
#76
0"!
#81
b00000000000000000000000000000001 Q
b00000000000000000000000000100000 h
b00000000001000001011000110110011 "'
b00000000000000000000000000100000 ">
1"!
b00000000001000001011000110110011 ,
b00001010 =
b11111111111111111111111111111011 "*
b011 L
b00000000000000000000000000000000 "Z
b00001001 H
b0101001101001100010101000010000000100000001000000010000000100000 S_H
b00001001 8
b0101001101001100010101000010000000100000001000000010000000100000 S_8
#86
0"!
#91
b00000000000000000000000000100100 h
b00000000001000001001000110110011 "'
b00000000000000000000000000100100 ">
1"!
b00000000001000001001000110110011 ,
b00000110 =
b00000000000000000000000000000000 "*
b001 L
b00000000000000000000000000000001 "Z
b00001010 H
b0101001101001100010101000101010100100000001000000010000000100000 S_H
b00001010 8
b0101001101001100010101000101010100100000001000000010000000100000 S_8
#96
0"!
#101
b00000000000000000001010000000000 Q
b00000000000000000000000000101000 h
b00000000001000001101000110110011 "'
b00000000000000000000000000101000 ">
1"!
b00000000001000001101000110110011 ,
b00000111 =
b00000000000000000000000000000001 "*
b101 L
b00000110 H
b0101001101001100010011000010000000100000001000000010000000100000 S_H
b00000110 8
b0101001101001100010011000010000000100000001000000010000000100000 S_8
#106
0"!
#111
b00000000000000000000000000000000 Q
b0100000 "_
b00000000000000000000000000101100 h
b01000000001000001101000110110011 "'
b00000000000000000000000000101100 ">
1"!
b01000000001000001101000110110011 ,
b00001000 =
b00000000000000000001010000000000 "Z
b00000111 H
b0101001101010010010011000010000000100000001000000010000000100000 S_H
b00000111 8
b0101001101010010010011000010000000100000001000000010000000100000 S_8
#116
0"!
#121
b0000000 "_
b00000000000000000000000000110000 h
b00000000001000001100000110110011 "'
b00000000000000000000000000110000 ">
1"!
b00000000001000001100000110110011 ,
b00000011 =
b00000000000000000001010000000000 "*
b100 L
b00000000000000000000000000000000 "Z
b00001000 H
b0101001101010010010000010010000000100000001000000010000000100000 S_H
b00001000 8
b0101001101010010010000010010000000100000001000000010000000100000 S_8
#126
0"!
#131
b00000000000000000000000000001111 Q
b00000000000000000000000000110100 h
b00000000001000001110000110110011 "'
b00000000000000000000000000110100 ">
1"!
b00000000001000001110000110110011 ,
b00000100 =
b00000000000000000000000000000000 "*
b110 L
b00000011 H
b0101100001001111010100100010000000100000001000000010000000100000 S_H
b00000011 8
b0101100001001111010100100010000000100000001000000010000000100000 S_8
#136
0"!
#141
b0000000 <
b00000000000000000000000000111000 h
b00000000000000000000000000000000 "'
b00000000000000000000000000111000 ">
1"!
b00000000000000000000000000000000 ,
b00000 .
b11111111 =
b00000000000000000000000000000000 "K
b00000 J
b000 L
b00000000000000000000000000001111 "Z
b00000100 H
b0100111101010010001000000010000000100000001000000010000000100000 S_H
b00000000000000000000000000000000 t
b00000 "/
b00000100 8
b0100111101010010001000000010000000100000001000000010000000100000 S_8
#146
0"!
#151
b00000000000000000000000000000000 Q
b00000000000000000000000000111100 h
b00000000000000000000000000111100 ">
1"!
b00000 `
b00000000000000000000000000000000 "`
b00000000000000000000000000001111 "*
b00000 F
b11111111 H
b0100100101001110010101100100000101001100010010010100010000100000 S_H
b00000000000000000000000000000000 "J
b00000000000000000000000000000000 p
b11111111 8
b0100100101001110010101100100000101001100010010010100010000100000 S_8
b00000000000000000000000000000000 W
#156
0"!
#161
b00000000000000000000000001000000 h
b00000000000000000000000000000000 "Z
b00000000000000000000000001000000 ">
1"!
