examples/task4.vcd
$date
2025-08-31T13:01+0000
$end
$version
0.2
$end
$comment

$end
$timescale 1ns  $end
$scope module PipelinedRV32I $end
 $var wire 1 l core $end
 $var wire 1 "! clock $end
 $var wire 32 "0 io_result $end
 $var wire 1 "U reset $end
  $scope module core.exBarrier $end
  $upscope $end
  $scope module core.exStage $end
  $upscope $end
  $scope module core.ifStage $end
  $upscope $end
  $scope module core.memBarrier $end
  $upscope $end
  $scope module core.idStage $end
  $upscope $end
  $scope module core.ifBarrier $end
  $upscope $end
  $scope module core.wbBarrier $end
  $upscope $end
  $scope module core.idStage.rf $end
  $upscope $end
  $scope module core $end
   $var wire 1 ! reset $end
   $var wire 1 ( idStage $end
   $var wire 1 / memStage $end
   $var wire 1 I memBarrier $end
   $var wire 1 [ ifStage $end
   $var wire 1 b idBarrier $end
   $var wire 1 r clock $end
   $var wire 1 { wbStage $end
   $var wire 32 "* io_check_res $end
   $var wire 1 "P wbBarrier $end
   $var wire 1 "Q ifBarrier $end
   $var wire 1 "Y exStage $end
   $var wire 1 "b exBarrier $end
    $scope module idStage $end
     $var wire 5 . rd $end
     $var wire 32 : io_rdReg_in $end
     $var wire 7 < opcode $end
     $var wire 8 = io_upo $end
     $var wire 5 J rs2 $end
     $var wire 3 L funct3 $end
     $var wire 32 S io_signExt_out $end
     $var wire 1 ] clock $end
     $var wire 12 ^ immI $end
     $var wire 5 g io_rs2 $end
     $var wire 32 t io_data1_out $end
     $var wire 32 v io_rd_out $end
     $var wire 1 z rf $end
     $var wire 5 "/ rs1 $end
     $var wire 32 "F io_data_in $end
     $var wire 32 "K io_data2_out $end
     $var wire 5 "R io_rs1 $end
     $var wire 32 "S io_inst_in $end
     $var wire 7 "_ funct7 $end
      $scope module rf $end
       $var wire 1 " clock $end
       $var wire 32 & regFile_1 $end
       $var wire 32 ' regFile_15 $end
       $var wire 32 - io_write_data $end
       $var wire 32 3 data2 $end
       $var wire 32 9 regFile_26 $end
       $var wire 32 > regFile_20 $end
       $var wire 32 @ forwardedData2 $end
       $var wire 32 B regFile_29 $end
       $var wire 32 C regFile_0 $end
       $var wire 32 D regFile_14 $end
       $var wire 32 G regFile_9 $end
       $var wire 32 K regFile_3 $end
       $var wire 32 O regFile_17 $end
       $var wire 32 R regFile_23 $end
       $var wire 32 T io_resp_data2 $end
       $var wire 32 Y regFile_11 $end
       $var wire 32 Z regFile_6 $end
       $var wire 32 m data1 $end
       $var wire 32 q regFile_25 $end
       $var wire 32 u regFile_19 $end
       $var wire 32 x regFile_31 $end
       $var wire 5 y io_write_rd $end
       $var wire 32 | regFile_10 $end
       $var wire 32 ~ forwardedData1 $end
       $var wire 32 "# regFile_8 $end
       $var wire 32 ") regFile_13 $end
       $var wire 5 "+ io_req_rs2 $end
       $var wire 32 ", regFile_28 $end
       $var wire 32 ". regFile_2 $end
       $var wire 32 "3 regFile_16 $end
       $var wire 32 "4 regFile_22 $end
       $var wire 32 "5 io_resp_data1 $end
       $var wire 32 "7 regFile_5 $end
       $var wire 32 "O regFile_21 $end
       $var wire 32 "V regFile_30 $end
       $var wire 32 "X regFile_24 $end
       $var wire 32 "\ regFile_18 $end
       $var wire 32 "] regFile_4 $end
       $var wire 32 "^ regFile_7 $end
       $var wire 32 "c regFile_27 $end
       $var wire 1 "d io_write_en $end
       $var wire 5 "e io_req_rs1 $end
       $var wire 32 "f regFile_12 $end
      $upscope $end
    $upscope $end
    $scope module exBarrier $end
     $var wire 32 # rd $end
     $var wire 1 2 reset $end
     $var wire 32 ; pcReg $end
     $var wire 32 i io_inst_out $end
     $var wire 32 j io_aluResult_out $end
     $var wire 32 w io_inst_in $end
     $var wire 32 "" io_aluResult_in $end
     $var wire 32 "% io_pc_out $end
     $var wire 32 "1 instReg $end
     $var wire 32 "2 io_pc_in $end
     $var wire 32 "C io_rd_in $end
     $var wire 1 "H clock $end
     $var wire 32 "Z aluReg $end
    $upscope $end
    $scope module ifStage $end
     $var wire 1 $ reset $end
     $var wire 32 , io_inst_out $end
     $var wire 32 _ io_pc_out $end
     $var wire 32 h pc $end
     $var wire 1 "6 clock $end
     $var wire 32 "G IMem $end
      $scope module IMem $end
        $scope module inst $end
         $var wire 12 a addr $end
         $var wire 32 "8 data $end
         $var wire 1 ": clk $end
         $var wire 1 "; en $end
        $upscope $end
      $upscope $end
    $upscope $end
    $scope module exStage $end
     $var wire 32 % io_data2_in $end
     $var wire 32 6 io_aluResult_out $end
     $var wire 8 8 io_upo_in $end
     $var wire 32 Q aluResult $end
     $var wire 32 p io_data1_in $end
     $var wire 32 "D io_signExt_in $end
     $var wire 32 "J operandB $end
    $upscope $end
    $scope module idBarrier $end
     $var wire 5 ) io_rs1_in $end
     $var wire 32 * signExtReg $end
     $var wire 32 + io_data2_in $end
     $var wire 32 0 io_inst_out $end
     $var wire 32 1 io_data1_out $end
     $var wire 32 ? io_signExt_in $end
     $var wire 32 E io_pc_out $end
     $var wire 5 F rs2 $end
     $var wire 8 H upoReg $end
     $var wire 8 M io_upo_in $end
     $var wire 32 V io_pc_in $end
     $var wire 32 W data1Reg $end
     $var wire 32 X io_signExt_out $end
     $var wire 5 ` rs1 $end
     $var wire 8 c io_upo_out $end
     $var wire 1 d clock $end
     $var wire 32 e io_data2_out $end
     $var wire 32 f io_rd_in $end
     $var wire 5 n io_rs2_in $end
     $var wire 32 o io_data1_in $end
     $var wire 32 "$ instReg $end
     $var wire 32 "I io_inst_in $end
     $var wire 32 "L pcReg $end
     $var wire 32 "N data2Reg $end
     $var wire 32 "W io_rd_out $end
     $var wire 1 "[ reset $end
     $var wire 32 "` rdReg $end
    $upscope $end
    $scope module memBarrier $end
     $var wire 32 4 io_pc_out $end
     $var wire 1 P clock $end
     $var wire 32 U instReg $end
     $var wire 32 "& io_pc_in $end
     $var wire 32 "< pcReg $end
     $var wire 32 "= io_aluResult_out $end
     $var wire 32 "? io_aluResult_in $end
     $var wire 32 "@ io_inst_out $end
     $var wire 32 "B io_inst_in $end
     $var wire 1 "E reset $end
     $var wire 32 "a aluReg $end
    $upscope $end
    $scope module wbBarrier $end
     $var wire 32 5 instReg $end
     $var wire 1 N clock $end
     $var wire 32 s io_pc_in $end
     $var wire 1 } reset $end
     $var wire 32 "- io_aluResult_in $end
     $var wire 32 "9 pcReg $end
     $var wire 32 "A io_aluResult_out $end
     $var wire 32 "M io_inst_in $end
    $upscope $end
    $scope module memStage $end
     $var wire 32 7 io_aluResult_out $end
     $var wire 32 "( io_aluResult_in $end
    $upscope $end
    $scope module ifBarrier $end
     $var wire 32 A io_inst_in $end
     $var wire 32 k io_pc_in $end
     $var wire 32 "' io_inst_out $end
     $var wire 32 "> io_pc_out $end
    $upscope $end
    $scope module wbStage $end
     $var wire 32 \ io_aluResult_out $end
     $var wire 32 "T io_aluResult_in $end
    $upscope $end
  $upscope $end
  $scope module core.wbStage $end
  $upscope $end
  $scope module core.idBarrier $end
  $upscope $end
  $scope module core.memStage $end
  $upscope $end
$upscope $end
$enddefinitions $end
$dumpvars
b00000000000000000000000000000000 Y
b00000000000000000000000000000000 '
b00000000 M
b00000000000000000000000000000000 ">
b00000 g
b00000 J
b00000000000000000000000000000000 "M
b00000000000000000000000000000000 "8
b00000000000000000000000000000000 "#
0"P
b00000000000000000000000000000000 "2
b00000000000000000000000000000000 O
b00000000000000000000000000000000 :
b00000000000000000000000000000000 "I
b00000000000000000000000000000000 "4
b00000000000000000000000000000000 Q
b00000 "e
b00000000000000000000000000000000 "`
b00000000000000000000000000000000 h
0"[
b00000000000000000000000000000000 ".
b00000000000000000000000000000000 K
b00000000000000000000000000000000 6
b00000000000000000000000000000000 w
b00000 n
b00000000000000000000000000000000 E
b00000000000000000000000000000000 0
0/
b00000000000000000000000000000000 "\
b00000000000000000000000000000000 "*
0[
0":
0z
0r
0]
0"Q
b00000000000000000000000000000000 s
b00000000000000000000000000000000 A
b00000000000000000000000000000000 "X
b00000000000000000000000000000000 "C
b00000000000000000000000000000000 "&
1";
b00000000000000000000000000000000 ;
0"U
b00000000000000000000000000000000 "=
b00000000000000000000000000000000 Z
b0000000 "_
b00000000000000000000000000000000 q
b00000000000000000000000000000000 T
b00000000000000000000000000000000 ?
0!
b00000 .
b00000000000000000000000000000000 "N
b00000000000000000000000000000000 k
b00000000000000000000000000000000 V
b00000000000000000000000000000000 "9
b00000000000000000000000000000000 9
b00000000000000000000000000000000 m
0l
b00000 y
b00000000000000000000000000000000 e
b00000000000000000000000000000000 3
0{
b00000000000000000000000000000000 |
b00000000000000000000000000000000 "5
0"E
0I
b00000000000000000000000000000000 "a
b00000000000000000000000000000000 "L
b00000000000000000000000000000000 i
b00000000000000000000000000000000 "D
b00000000000000000000000000000000 "c
0b
b00000000000000000000000000000000 "1
0(
b00000000000000000000000000000000 "]
b00000000000000000000000000000000 "@
b00000000000000000000000000000000 "W
b00000000000000000000000000000000 t
b00000000000000000000000000000000 _
b00000000000000000000000000000000 "%
b00000000000000000000000000000000 B
b00000000000000000000000000000000 -
b00000000000000000000000000000000 "<
b00000000000000000000000000000000 "'
b00000000000000000000000000000000 D
b00000000000000000000000000000000 "S
b00000000000000000000000000000000 p
b00000000000000000000000000000000 S
b00000000000000000000000000000000 >
b00000 "R
b00000000000000000000000000000000 j
b00000000000000000000000000000000 U
0"H
0"
b00000000000000000000000000000000 #
b00000000000000000000000000000000 "O
1"d
0N
b000000000000 ^
b00000 F
b00000000000000000000000000000000 "f
b00000 )
b00000000000000000000000000000000 f
0P
b00000000000000000000000000000000 4
b00000000 =
b00000000000000000000000000000000 "K
b00000000000000000000000000000000 "0
b00000000000000000000000000000000 "(
b00000 "/
b00000000000000000000000000000000 \
b00000000000000000000000000000000 G
b00000000000000000000000000000000 *
b00000000000000000000000000000000 "^
0"Y
b00000000000000000000000000000000 "A
b00000000000000000000000000000000 ",
b00000000000000000000000000000000 "$
b00000000000000000000000000000000 ,
b000 L
b00000000000000000000000000000000 u
b00000 "+
b00000000000000000000000000000000 X
b00000000000000000000000000000000 C
0"6
0"!
b00000000000000000000000000000000 &
b00000000000000000000000000000000 "Z
b00000000000000000000000000000000 o
b000000000000 a
b00000000 c
b00000000000000000000000000000000 "T
b00000000000000000000000000000000 "?
b00000000000000000000000000000000 "7
b00000000000000000000000000000000 ""
b00000 `
b00000000000000000000000000000000 7
b00000000 H
b00000000000000000000000000000000 "V
b00000000000000000000000000010011 "G
0d
b00000000000000000000000000000000 "3
02
0"b
b00000000000000000000000000000000 "J
b00000000000000000000000000000000 R
b00000000000000000000000000000000 "-
b00000000000000000000000000000000 5
b0000000 <
b00000000000000000000000000000000 ~
0}
b00000000 8
b00000000000000000000000000000000 x
b00000000000000000000000000000000 "F
b00000000000000000000000000000000 ")
b00000000000000000000000000000000 1
b00000000000000000000000000000000 @
b00000000000000000000000000000000 +
b00000000000000000000000000000000 "B
b00000000000000000000000000000000 W
0$
b00000000000000000000000000000000 %
b00000000000000000000000000000000 v
$end
#0
b0010011 <
1}
b00000000000000000000000000010011 "I
b00010000 =
b00000000000000000000000000010011 "'
b00010000 M
1!
b00000000000000000000000000010011 "S
1"E
12
1"[
1"U
1$
b00000000000000000000000000010011 "8
b00000000000000000000000000010011 A
b00000000000000000000000000010011 ,
#1
1":
b00010000 c
1r
1N
1"
1"6
1"!
1d
b00010000 8
1]
b00010000 H
1"H
1P
#6
0":
0}
0!
0r
0N
0"
0"6
0"!
0"E
0d
02
0"[
0"U
0]
0$
0"H
0P
#11
b00101 n
b00000000000000000000000000000001 f
b00000000000000000000000000010011 "$
b00101 g
b00101 J
b00000000000000000000000000000100 h
b00000000000000000000000000000101 S
b00000000000000000000000000000001 "C
b000000000001 a
b00000000010100000000000010010011 "'
b00000000000000000000000000010011 0
1N
b00000000000000000000000000000100 ">
b00000000010100000000000010010011 "S
1"6
1"!
1d
1]
b00000000010100000000000010010011 "8
b000000000101 ^
b00000000010100000000000010010011 A
b00000000010100000000000010010011 ,
b00000000000000000000000000000100 _
1":
b00001 .
b00000000000000000000000000000001 v
b00000000010100000000000010010011 "I
b00000000000000000000000000010011 w
b00000000000000000000000000000101 ?
1r
1"
b00000000000000000000000000000100 k
b00000000000000000000000000000100 V
1"H
1P
b00101 "+
#16
0":
0r
0N
0"
0"6
0"!
0d
0]
0"H
0P
#21
b01010 "+
b00000000000000000000000000000010 f
b00000000000000000000000000000101 Q
b00000000000000000000000000000001 "W
b00000000000000000000000000010011 "B
b00000000000000000000000000001000 h
b00000000000000000000000000001010 S
b00000000000000000000000000000101 6
b00000000101000000000000100010011 "'
b00000000010100000000000010010011 0
b00000000101000000000000100010011 "S
b00000000000000000000000000001000 ">
b00001 y
1"!
1d
1"6
b00000000000000000000000000000101 *
b00000000101000000000000100010011 "8
b000000001010 ^
b00000000101000000000000100010011 A
b00000000101000000000000100010011 ,
1":
b00000000000000000000000000000100 "2
b00000000000000000000000000000101 X
b00010 .
b00000000101000000000000100010011 "I
b00000000010100000000000010010011 w
b00000000000000000000000000000100 E
b00000000000000000000000000000001 "`
b00000000000000000000000000001010 ?
1"
b00000000000000000000000000001000 k
b00000000000000000000000000001000 V
1P
b00000000010100000000000010010011 "$
b01010 g
b01010 J
b00000000000000000000000000000010 "C
b00000000000000000000000000010011 i
b000000000010 a
1N
b00101 F
b00000000000000000000000000000101 ""
1]
b00000000000000000000000000001000 _
b00000000000000000000000000000101 -
b00000000000000000000000000000010 v
b00000000000000000000000000000101 "J
b00000000000000000000000000000100 "L
b00000000000000000000000000000101 "D
1r
b00000000000000000000000000000001 #
b00000000000000000000000000000101 "F
b00000000000000000000000000010011 "1
b00000000000000000000000000000001 :
1"H
b01010 n
#26
0":
0r
0N
0"
0"6
0"!
0d
0]
0"H
0P
#31
b00000 n
b00000000000000000000000000000000 f
b00000000000000000000000000001010 Q
b00000000000000000000000000000010 "W
b00000000010100000000000010010011 "B
b00000000000000000000000000000100 "%
b00000000000000000000000000001100 h
b00000000000000000000000000000000 S
b00000000000000000000000000001010 6
b00000000000000000000000000000101 j
b00000000000000000000000000010011 "'
b00000000101000000000000100010011 0
b00000000000000000000000000010011 "S
b00000000000000000000000000001100 ">
b00010 y
1"!
1d
1"6
b00000000000000000000000000001010 *
b00000000000000000000000000010011 "M
b00000000000000000000000000010011 "8
b000000000000 ^
b00000000000000000000000000010011 A
b00000000000000000000000000010011 ,
1":
b00000000000000000000000000001000 "2
b00000000000000000000000000001010 X
b00000 .
b00000000000000000000000000000101 &
b00000000000000000000000000010011 "I
b00000000101000000000000100010011 w
b00000000000000000000000000001000 E
b00000000000000000000000000000010 "`
b00000000000000000000000000000000 ?
1"
b00000000000000000000000000000101 "(
b00000000000000000000000000001100 k
b00000000000000000000000000001100 V
1P
b00000000000000000000000000000100 ;
b00000000101000000000000100010011 "$
b00000 g
b00000 J
b00000000000000000000000000000000 "C
b00000000010100000000000010010011 i
b00000000000000000000000000000100 "&
b000000000011 a
b00000000000000000000000000000101 7
b00000000000000000000000000000101 "Z
1N
b01010 F
b00000000000000000000000000000101 "?
b00000000000000000000000000001010 ""
1]
b00000000000000000000000000001100 _
b00000000000000000000000000001010 -
b00000000000000000000000000000000 v
b00000000000000000000000000001010 "J
b00000000000000000000000000001000 "L
b00000000000000000000000000001010 "D
1r
b00000000000000000000000000010011 U
b00000000000000000000000000000010 #
b00000000000000000000000000001010 "F
b00000000010100000000000010010011 "1
b00000000000000000000000000000010 :
1"H
b00000000000000000000000000010011 "@
b00000 "+
#36
0":
0r
0N
0"
0"6
0"!
0d
0]
0"H
0P
#41
b00010 n
b00000000000000000000000000000011 f
b00000000000000000000000000000000 Q
b0110011 <
b00000000000000000000000000000100 4
b00000000000000000000000000000000 "W
b00000000101000000000000100010011 "B
b00000000000000000000000000001000 "%
b00000000000000000000000000010000 h
b00000000000000000000000000000010 S
b00000000000000000000000000000000 6
b00000000000000000000000000000100 "<
b00000000000000000000000000001010 j
b00000000001000001000000110110011 "'
b00000001 M
b00000000000000000000000000010011 0
b00000000001000001000000110110011 "S
b00000000000000000000000000010000 ">
b00000 y
1"!
1d
1"6
b00000000000000000000000000000000 *
b00000000010100000000000010010011 "M
b00000000001000001000000110110011 "8
b000000000010 ^
b00000000001000001000000110110011 A
b00000000001000001000000110110011 ,
1":
b00000000000000000000000000001100 "2
b00000000000000000000000000000000 X
b00011 .
b00000000001000001000000110110011 "I
b00000000000000000000000000010011 w
b00000000000000000000000000000101 o
b00000000000000000000000000001100 E
b00000001 =
b00000000000000000000000000000000 "`
b00000000000000000000000000001010 "K
b00000000000000000000000000001010 ".
b00000000000000000000000000000101 \
b00000000000000000000000000001010 T
b00000000000000000000000000000010 ?
1"
b00000000000000000000000000000100 s
b00000000000000000000000000000101 "0
b00000000000000000000000000001010 "(
b00000000000000000000000000010000 k
b00000000000000000000000000010000 V
b00000000000000000000000000000101 "*
b00000000000000000000000000000101 m
1P
b00000000000000000000000000001000 ;
b00000000000000000000000000001010 3
b00000000000000000000000000000101 "A
b00000000000000000000000000010011 "$
b00010 g
b00010 J
b00000000000000000000000000010011 5
b00000000000000000000000000000011 "C
b00000000000000000000000000000101 ~
b00000000101000000000000100010011 i
b00000000000000000000000000001000 "&
b000000000100 a
b00000000000000000000000000001010 7
b00000000000000000000000000001010 "Z
b00001 "R
b00000000000000000000000000000101 "=
1N
b00000 F
b00000000000000000000000000000101 "T
b00000000000000000000000000001010 "?
b00000000000000000000000000000000 ""
1]
b00000000000000000000000000001010 +
b00000000000000000000000000000101 t
b00000000000000000000000000010000 _
b00000000000000000000000000000000 -
b00001 "e
b00000000000000000000000000000011 v
b00000000000000000000000000000000 "J
b00000000000000000000000000000101 "5
b00000000000000000000000000000101 "-
b00001 )
b00000000000000000000000000000101 "a
b00000000000000000000000000001100 "L
b00000000000000000000000000000000 "D
1r
b00001 "/
b00000000010100000000000010010011 U
b00000000000000000000000000001010 @
b00000000000000000000000000000000 #
b00000000000000000000000000000000 "F
b00000000101000000000000100010011 "1
b00000000000000000000000000000000 :
1"H
b00000000010100000000000010010011 "@
b00010 "+
#46
0":
0r
0N
0"
0"6
0"!
0d
0]
0"H
0P
#51
b00000000000000000000000000001111 Q
b0100000 "_
b00000000000000000000000000001000 4
b00000000000000000000000000000011 "W
b00000000000000000000000000010011 "B
b00000000000000000000000000001100 "%
b00000000000000000000000000010100 h
b00000000000000000000010000000010 S
b00000000000000000000000000001111 6
b00000000000000000000000000001000 "<
b00000000000000000000000000000000 j
b01000000001000001000000110110011 "'
b00000010 M
b00000000001000001000000110110011 0
b01000000001000001000000110110011 "S
b00000000000000000000000000010100 ">
b00011 y
1"!
1d
1"6
b00000000000000000000000000000010 *
b00000000101000000000000100010011 "M
b01000000001000001000000110110011 "8
b010000000010 ^
b01000000001000001000000110110011 A
b01000000001000001000000110110011 ,
1":
b00000000000000000000000000010000 "2
b00001 `
b00000000000000000000000000000010 X
b01000000001000001000000110110011 "I
b00000000001000001000000110110011 w
b00000000000000000000000000010000 E
b00000010 =
b00000000000000000000000000000011 "`
b00000000000000000000000000001010 \
b00000000000000000000010000000010 ?
1"
b00000000000000000000000000001000 s
b00000000000000000000000000001010 "0
b00000000000000000000000000000000 "(
b00000000000000000000000000010100 k
b00000000000000000000000000010100 V
b00000000000000000000000000001010 "*
1P
b00000000000000000000000000001100 ;
b00000000000000000000000000001010 "A
b00000000001000001000000110110011 "$
b00000000010100000000000010010011 5
b00000000000000000000000000010011 i
b00000000000000000000000000001100 "&
b000000000101 a
b00000000000000000000000000000000 7
b00000000000000000000000000000000 "Z
b00000000000000000000000000001010 "=
b00000001 c
1N
b00010 F
b00000000000000000000000000000101 1
b00000000000000000000000000001010 "T
b00000000000000000000000000000000 "?
b00000000000000000000000000001010 e
b00000000000000000000000000001111 ""
1]
b00000001 H
b00000000000000000000000000001010 "N
b00000000000000000000000000000100 "9
b00000000000000000000000000010100 _
b00000000000000000000000000001111 -
b00000000000000000000000000001010 %
b00000000000000000000000000001010 "J
b00000000000000000000000000001010 "-
b00000000000000000000000000000101 p
b00000000000000000000000000001010 "a
b00000000000000000000000000010000 "L
b00000000000000000000000000000010 "D
1r
b00000000101000000000000100010011 U
b00000001 8
b00000000000000000000000000000011 #
b00000000000000000000000000001111 "F
b00000000000000000000000000010011 "1
b00000000000000000000000000000101 W
b00000000000000000000000000000011 :
1"H
b00000000101000000000000100010011 "@
#56
0":
0r
0N
0"
0"6
0"!
0d
0]
0"H
0P
#61
b11111111111111111111111111111011 Q
b0000000 "_
b00000000000000000000000000001100 4
b00000000001000001000000110110011 "B
b00000000000000000000000000010000 "%
b00000000000000000000000000011000 h
b00000000000000000000000000000010 S
b00000000000000000000000000001111 K
b11111111111111111111111111111011 6
b00000000000000000000000000001100 "<
b00000000000000000000000000001111 j
b00000000001000001111000110110011 "'
b00000101 M
b01000000001000001000000110110011 0
b00000000001000001111000110110011 "S
b00000000000000000000000000011000 ">
1"6
1"!
1d
b00000000000000000000010000000010 *
b00000000000000000000000000010011 "M
b00000000001000001111000110110011 "8
b000000000010 ^
b00000000001000001111000110110011 A
b00000000001000001111000110110011 ,
1":
b00000000000000000000000000010100 "2
b00000000000000000000010000000010 X
b00000000001000001111000110110011 "I
b01000000001000001000000110110011 w
b00000000000000000000000000010100 E
b00000101 =
b00000000000000000000000000000000 \
b00000000000000000000000000000010 ?
1"
b00000000000000000000000000001100 s
b00000000000000000000000000000000 "0
b00000000000000000000000000001111 "(
b00000000000000000000000000011000 k
b00000000000000000000000000011000 V
b00000000000000000000000000000000 "*
1P
b00000000000000000000000000010000 ;
b00000000000000000000000000000000 "A
b01000000001000001000000110110011 "$
b00000000101000000000000100010011 5
b00000000001000001000000110110011 i
b00000000000000000000000000010000 "&
b000000000110 a
b111 L
b00000000000000000000000000001111 7
b00000000000000000000000000001111 "Z
b00000000000000000000000000000000 "=
b00000010 c
1N
b00000000000000000000000000000000 "T
b00000000000000000000000000001111 "?
b11111111111111111111111111111011 ""
1]
b00000010 H
b00000000000000000000000000001000 "9
b00000000000000000000000000011000 _
b11111111111111111111111111111011 -
b00000000000000000000000000000000 "-
b00000000000000000000000000000000 "a
b00000000000000000000000000010100 "L
b00000000000000000000010000000010 "D
1r
b00000000000000000000000000010011 U
b00000010 8
b11111111111111111111111111111011 "F
b00000000001000001000000110110011 "1
1"H
b00000000000000000000000000010011 "@
#66
0":
0r
0N
0"
0"6
0"!
0d
0]
0"H
0P
#71
b00000000000000000000000000000000 Q
b00000000000000000000000000010000 4
b01000000001000001000000110110011 "B
b00000000000000000000000000010100 "%
b00000000000000000000000000011100 h
b11111111111111111111111111111011 K
b00000000000000000000000000000000 6
b00000000000000000000000000010000 "<
b11111111111111111111111111111011 j
b00000000001000001010000110110011 "'
b00001001 M
b00000000001000001111000110110011 0
b00000000001000001010000110110011 "S
b00000000000000000000000000011100 ">
1"6
1"!
1d
b00000000000000000000000000000010 *
b00000000001000001000000110110011 "M
b00000000001000001010000110110011 "8
b00000000001000001010000110110011 A
b00000000001000001010000110110011 ,
1":
b00000000000000000000000000011000 "2
b00000000000000000000000000000010 X
b00000000001000001010000110110011 "I
b00000000001000001111000110110011 w
b00000000000000000000000000011000 E
b00001001 =
b00000000000000000000000000001111 \
1"
b00000000000000000000000000010000 s
b00000000000000000000000000001111 "0
b11111111111111111111111111111011 "(
b00000000000000000000000000011100 k
b00000000000000000000000000011100 V
b00000000000000000000000000001111 "*
1P
b00000000000000000000000000010100 ;
b00000000000000000000000000001111 "A
b00000000001000001111000110110011 "$
b00000000000000000000000000010011 5
b01000000001000001000000110110011 i
b00000000000000000000000000010100 "&
b000000000111 a
b010 L
b11111111111111111111111111111011 7
b11111111111111111111111111111011 "Z
b00000000000000000000000000001111 "=
b00000101 c
1N
b00000000000000000000000000001111 "T
b11111111111111111111111111111011 "?
b00000000000000000000000000000000 ""
1]
b00000101 H
b00000000000000000000000000001100 "9
b00000000000000000000000000011100 _
b00000000000000000000000000000000 -
b00000000000000000000000000001111 "-
b00000000000000000000000000001111 "a
b00000000000000000000000000011000 "L
b00000000000000000000000000000010 "D
1r
b00000000001000001000000110110011 U
b00000101 8
b00000000000000000000000000000000 "F
b01000000001000001000000110110011 "1
1"H
b00000000001000001000000110110011 "@
#76
0":
0r
0N
0"
0"6
0"!
0d
0]
0"H
0P
#81
b00000000000000000000000000000001 Q
b00000000000000000000000000010100 4
b00000000001000001111000110110011 "B
b00000000000000000000000000011000 "%
b00000000000000000000000000100000 h
b00000000000000000000000000000000 K
b00000000000000000000000000000001 6
b00000000000000000000000000010100 "<
b00000000000000000000000000000000 j
b00000000001000001011000110110011 "'
b00001010 M
b00000000001000001010000110110011 0
b00000000001000001011000110110011 "S
b00000000000000000000000000100000 ">
1"6
1"!
1d
b01000000001000001000000110110011 "M
b00000000001000001011000110110011 "8
b00000000001000001011000110110011 A
b00000000001000001011000110110011 ,
1":
b00000000000000000000000000011100 "2
b00000000001000001011000110110011 "I
b00000000001000001010000110110011 w
b00000000000000000000000000011100 E
b00001010 =
b11111111111111111111111111111011 \
1"
b00000000000000000000000000010100 s
b11111111111111111111111111111011 "0
b00000000000000000000000000000000 "(
b00000000000000000000000000100000 k
b00000000000000000000000000100000 V
b11111111111111111111111111111011 "*
1P
b00000000000000000000000000011000 ;
b11111111111111111111111111111011 "A
b00000000001000001010000110110011 "$
b00000000001000001000000110110011 5
b00000000001000001111000110110011 i
b00000000000000000000000000011000 "&
b000000001000 a
b011 L
b00000000000000000000000000000000 7
b00000000000000000000000000000000 "Z
b11111111111111111111111111111011 "=
b00001001 c
1N
b11111111111111111111111111111011 "T
b00000000000000000000000000000000 "?
b00000000000000000000000000000001 ""
1]
b00001001 H
b00000000000000000000000000010000 "9
b00000000000000000000000000100000 _
b00000000000000000000000000000001 -
b11111111111111111111111111111011 "-
b11111111111111111111111111111011 "a
b00000000000000000000000000011100 "L
1r
b01000000001000001000000110110011 U
b00001001 8
b00000000000000000000000000000001 "F
b00000000001000001111000110110011 "1
1"H
b01000000001000001000000110110011 "@
#86
0":
0r
0N
0"
0"6
0"!
0d
0]
0"H
0P
#91
b00000000000000000000000000011000 4
b00000000001000001010000110110011 "B
b00000000000000000000000000011100 "%
b00000000000000000000000000100100 h
b00000000000000000000000000000001 K
b00000000000000000000000000011000 "<
b00000000000000000000000000000001 j
b00000000001000001001000110110011 "'
b00000110 M
b00000000001000001011000110110011 0
b00000000001000001001000110110011 "S
b00000000000000000000000000100100 ">
1"6
1"!
1d
b00000000001000001111000110110011 "M
b00000000001000001001000110110011 "8
b00000000001000001001000110110011 A
b00000000001000001001000110110011 ,
1":
b00000000000000000000000000100000 "2
b00000000001000001001000110110011 "I
b00000000001000001011000110110011 w
b00000000000000000000000000100000 E
b00000110 =
b00000000000000000000000000000000 \
1"
b00000000000000000000000000011000 s
b00000000000000000000000000000000 "0
b00000000000000000000000000000001 "(
b00000000000000000000000000100100 k
b00000000000000000000000000100100 V
b00000000000000000000000000000000 "*
1P
b00000000000000000000000000011100 ;
b00000000000000000000000000000000 "A
b00000000001000001011000110110011 "$
b01000000001000001000000110110011 5
b00000000001000001010000110110011 i
b00000000000000000000000000011100 "&
b000000001001 a
b001 L
b00000000000000000000000000000001 7
b00000000000000000000000000000001 "Z
b00000000000000000000000000000000 "=
b00001010 c
1N
b00000000000000000000000000000000 "T
b00000000000000000000000000000001 "?
1]
b00001010 H
b00000000000000000000000000010100 "9
b00000000000000000000000000100100 _
b00000000000000000000000000000000 "-
b00000000000000000000000000000000 "a
b00000000000000000000000000100000 "L
1r
b00000000001000001111000110110011 U
b00001010 8
b00000000001000001010000110110011 "1
1"H
b00000000001000001111000110110011 "@
#96
0":
0r
0N
0"
0"6
0"!
0d
0]
0"H
0P
#101
b00000000000000000001010000000000 Q
b00000000000000000000000000011100 4
b00000000001000001011000110110011 "B
b00000000000000000000000000100000 "%
b00000000000000000000000000101000 h
b00000000000000000001010000000000 6
b00000000000000000000000000011100 "<
b00000000001000001101000110110011 "'
b00000111 M
b00000000001000001001000110110011 0
b00000000001000001101000110110011 "S
b00000000000000000000000000101000 ">
1"6
1"!
1d
b00000000001000001010000110110011 "M
b00000000001000001101000110110011 "8
b00000000001000001101000110110011 A
b00000000001000001101000110110011 ,
1":
b00000000000000000000000000100100 "2
b00000000001000001101000110110011 "I
b00000000001000001001000110110011 w
b00000000000000000000000000100100 E
b00000111 =
b00000000000000000000000000000001 \
1"
b00000000000000000000000000011100 s
b00000000000000000000000000000001 "0
b00000000000000000000000000101000 k
b00000000000000000000000000101000 V
b00000000000000000000000000000001 "*
1P
b00000000000000000000000000100000 ;
b00000000000000000000000000000001 "A
b00000000001000001001000110110011 "$
b00000000001000001111000110110011 5
b00000000001000001011000110110011 i
b00000000000000000000000000100000 "&
b000000001010 a
b101 L
b00000000000000000000000000000001 "=
b00000110 c
1N
b00000000000000000000000000000001 "T
b00000000000000000001010000000000 ""
1]
b00000110 H
b00000000000000000000000000011000 "9
b00000000000000000000000000101000 _
b00000000000000000001010000000000 -
b00000000000000000000000000000001 "-
b00000000000000000000000000000001 "a
b00000000000000000000000000100100 "L
1r
b00000000001000001010000110110011 U
b00000110 8
b00000000000000000001010000000000 "F
b00000000001000001011000110110011 "1
1"H
b00000000001000001010000110110011 "@
#106
0":
0r
0N
0"
0"6
0"!
0d
0]
0"H
0P
