examples/task3.vcd
$date
2025-09-16T17:38+0000
$end
$version
0.2
$end
$comment

$end
$timescale 1ns  $end
$scope module MultiCycleRV32Icore $end
 $var wire 32 ! immI_sext $end
 $var wire 32 " instReg $end
 $var wire 1 $ isOR_wire $end
 $var wire 1 * isXOR $end
 $var wire 32 + PC $end
 $var wire 1 , isSLT $end
 $var wire 32 / regFile $end
 $var wire 1 0 isSLTU_wire $end
 $var wire 1 2 isSRA $end
 $var wire 32 3 IMem $end
 $var wire 1 4 isADDI $end
 $var wire 1 5 isADDI_wire $end
 $var wire 1 6 isOR $end
 $var wire 1 7 isSLL_wire $end
 $var wire 32 8 operandA_wire $end
 $var wire 7 : funct7 $end
 $var wire 16 < immI $end
 $var wire 1 = isXOR_wire $end
 $var wire 32 C inst $end
 $var wire 1 D printf $end
 $var wire 5 G rs2 $end
 $var wire 1 H isSLTU $end
 $var wire 1 I isADD_wire $end
 $var wire 1 J clock $end
 $var wire 1 K isAND_wire $end
 $var wire 1 L isSRA_wire $end
 $var wire 7 M opcode $end
 $var wire 1 P isSRL_wire $end
 $var wire 32 Q rs1Data $end
 $var wire 3 T funct3 $end
 $var wire 1 U isADD $end
 $var wire 32 V operandB $end
 $var wire 5 W rs1 $end
 $var wire 1 Y isSRL $end
 $var wire 1 Z isSLL $end
 $var wire 5 \ rd $end
 $var wire 1 a isSUB_wire $end
 $var wire 32 b io_check_res $end
 $var wire 1 c isSLT_wire $end
 $var wire 1 f assert $end
 $var wire 1 g reset $end
 $var wire 32 i aluResult $end
 $var wire 32 j operandA $end
 $var wire 32 k rs2Data $end
 $var wire 3 l stage $end
 $var wire 1 m isSUB $end
 $var wire 1 n isAND $end
 $var wire 5 o rdReg $end
  $scope module regFile $end
   $var wire 32 > MPORT_1 $end
   $var wire 32 @ MPORT $end
    $scope module rs1Data_MPORT $end
     $var wire 1 # clk $end
     $var wire 32 % data $end
     $var wire 1 O en $end
     $var wire 5 ] addr $end
    $upscope $end
    $scope module MPORT_1 $end
     $var wire 1 & clk $end
     $var wire 1 . mask $end
     $var wire 1 1 en $end
     $var wire 32 ; pipeline_data_0 $end
     $var wire 5 A addr $end
     $var wire 1 N valid $end
     $var wire 32 _ data $end
     $var wire 1 e pipeline_valid_0 $end
     $var wire 5 h pipeline_addr_0 $end
    $upscope $end
    $scope module MPORT $end
     $var wire 1 ' pipeline_valid_0 $end
     $var wire 32 ( data $end
     $var wire 1 ) en $end
     $var wire 1 9 clk $end
     $var wire 1 E mask $end
     $var wire 5 F pipeline_addr_0 $end
     $var wire 1 [ valid $end
     $var wire 5 ` addr $end
     $var wire 32 p pipeline_data_0 $end
    $upscope $end
    $scope module rs2Data_MPORT $end
     $var wire 5 ? addr $end
     $var wire 1 B en $end
     $var wire 1 S clk $end
     $var wire 32 ^ data $end
    $upscope $end
  $upscope $end
  $scope module IMem $end
    $scope module inst_MPORT $end
     $var wire 32 - data $end
     $var wire 1 R clk $end
     $var wire 1 X en $end
     $var wire 12 d addr $end
    $upscope $end
  $upscope $end
$upscope $end
$enddefinitions $end
$dumpvars
0X
0&
b00000000000000000000000000000000 p
0Z
0R
0=
b00000000000000000000000000000000 >
b00000000000000000000000000000000 !
b00000000000000000000000000000000 j
07
b00000000000000000000000000000000 8
0N
09
b00000 F
0m
0e
b00000000000000000000000000000000 Q
0P
b00000 ]
b000 T
0g
0J
05
b00000 W
b00000000000000000000000000000000 b
b0000000000000000 <
0a
0L
0D
0c
0[
01
b00000 h
b00000000000000000000000000000000 ^
0H
1)
b00000000000000000000000000000000 C
0B
b00000000000000000000000000000000 ;
0n
0Y
b00000000000000000000000000000000 (
0'
0S
b00000 `
06
b00000000000000000000000000000000 "
b00000000000000000000000000000000 k
b00000000000000000000000000000000 V
0U
1.
0#
1E
0O
b00000 \
b00000 G
02
b00000000010100000000000010010011 3
b00000 ?
0f
0I
04
b00000 A
b00000000000000000000000000000000 i
0K
b000 l
b00000000000000000000000000000000 /
b00000 o
00
b0000000 M
b00000000000000000000000000000000 @
b000000000000 d
0*
b00000000000000000000000000000000 +
b0000000 :
b00000000000000000000000000000000 _
0,
b00000000000000000000000000000000 -
0$
b00000000000000000000000000000000 %
$end
#0
b00000000010100000000000010010011 -
1X
1g
b00000000010100000000000010010011 C
1[
#1
1R
1J
1&
1#
1S
19
1'
#6
0g
0R
0J
0&
0#
0S
09
#11
1B
b0000000000000101 <
0X
1R
1J
15
1&
1S
b0010011 M
b00001 \
b00000000000000000000000000000101 !
b00101 ?
b00000000010100000000000010010011 "
b00101 G
b00000000000000000000000000000101 k
1#
19
b001 l
1O
#16
0R
0J
0&
0#
0S
09
#21
0B
14
1R
1J
1&
b00000000000000000000000000000101 V
1S
1#
b00001 o
b010 l
19
0O
b00001 A
#26
0R
0J
0&
0#
0S
09
#31
1R
1J
1&
b00001 h
1S
1#
19
b011 l
b00000000000000000000000000000101 i
b00000000000000000000000000000101 _
#36
0R
0J
0&
0#
0S
09
#41
1N
11
1R
1J
1&
1#
1S
19
b100 l
b00000000000000000000000000000101 b
b00000000000000000000000000000101 ;
#46
0R
0J
0&
0#
0S
09
#51
b00000000101000000000000100010011 -
1X
b00000000101000000000000100010011 C
1R
1J
1&
1S
b00000000000000000000000000000000 b
0N
01
b000000000001 d
1#
1e
19
b000 l
b00000000000000000000000000000100 +
#56
0R
0J
0&
0#
0S
09
#61
1B
b0000000000001010 <
0X
1R
1J
1&
1S
b00010 \
b00000000000000000000000000001010 !
b01010 ?
b00000000101000000000000100010011 "
b01010 G
b00000000000000000000000000001010 k
0e
1#
19
b001 l
1O
#66
0R
0J
0&
0#
0S
09
#71
0B
1R
1J
1&
b00000000000000000000000000001010 V
1S
1#
b00010 o
b010 l
19
0O
b00010 A
#76
0R
0J
0&
0#
0S
09
#81
1R
1J
1&
b00010 h
1S
1#
19
b011 l
b00000000000000000000000000001010 i
b00000000000000000000000000001010 _
#86
0R
0J
0&
0#
0S
09
#91
1N
11
1R
1J
1&
1#
1S
19
b100 l
b00000000000000000000000000001010 b
b00000000000000000000000000001010 ;
#96
0R
0J
0&
0#
0S
09
#101
b00000000001000001000000110110011 -
1X
b00000000001000001000000110110011 C
1R
1J
1&
1S
b00000000000000000000000000000000 b
0N
01
b000000000010 d
1#
1e
19
b000 l
b00000000000000000000000000001000 +
#106
0R
0J
0&
0#
0S
09
#111
1B
b00000000000000000000000000000101 Q
b0000000000000010 <
b00000000000000000000000000000101 %
0X
1R
1J
05
1&
1S
b0110011 M
b00011 \
b00000000000000000000000000000010 !
b00010 ?
b00000000001000001000000110110011 "
b00000000000000000000000000000101 8
b00010 G
1#
0e
19
b001 l
b00001 W
b00001 ]
1O
b00000000000000000000000000001010 ^
1I
#116
0R
0J
0&
0#
0S
09
#121
0B
04
1R
1J
1&
1S
b00011 o
b00000000000000000000000000000101 j
1U
1#
19
b010 l
0O
b00011 A
#126
0R
0J
0&
0#
0S
09
#131
1R
1J
1&
b00011 h
1S
1#
19
b011 l
b00000000000000000000000000001111 i
b00000000000000000000000000001111 _
#136
0R
0J
0&
0#
0S
09
#141
1N
11
1R
1J
1&
1#
1S
19
b100 l
b00000000000000000000000000001111 b
b00000000000000000000000000001111 ;
#146
0R
0J
0&
0#
0S
09
#151
b01000000001000001000000110110011 -
1X
b01000000001000001000000110110011 C
1R
1J
1&
1S
b00000000000000000000000000000000 b
0N
01
b000000000011 d
1#
1e
19
b000 l
b00000000000000000000000000001100 +
#156
0R
0J
0&
0#
0S
09
#161
1B
b0000010000000010 <
0X
1R
1J
1&
1S
1a
b00000000000000000000010000000010 !
b01000000001000001000000110110011 "
1#
0e
19
b001 l
1O
b0100000 :
0I
#166
0R
0J
0&
0#
0S
09
#171
0B
0U
1R
1J
1&
1#
1S
19
b010 l
0O
1m
#176
0R
0J
0&
0#
0S
09
#181
1R
1J
1&
1#
1S
19
b011 l
b11111111111111111111111111111011 i
b11111111111111111111111111111011 _
#186
0R
0J
0&
0#
0S
09
#191
1N
11
1R
1J
1&
1#
1S
19
b100 l
b11111111111111111111111111111011 b
b11111111111111111111111111111011 ;
#196
0R
0J
0&
0#
0S
09
#201
b00000000001000001111000110110011 -
1X
b00000000001000001111000110110011 C
1R
1J
1&
1S
b00000000000000000000000000000000 b
0N
01
b000000000100 d
1#
1e
19
b000 l
b00000000000000000000000000010000 +
#206
0R
0J
0&
0#
0S
09
#211
1B
b0000000000000010 <
0X
1R
1J
1&
1S
1K
0a
b00000000000000000000000000000010 !
b111 T
b00000000001000001111000110110011 "
1#
0e
19
b001 l
1O
b0000000 :
#216
0R
0J
0&
0#
0S
09
#221
0B
1R
1J
1&
1#
1S
19
b010 l
0O
0m
1n
#226
0R
0J
0&
0#
0S
09
#231
1R
1J
1&
1#
1S
19
b011 l
b00000000000000000000000000000000 i
b00000000000000000000000000000000 _
#236
0R
0J
0&
0#
0S
09
#241
1N
11
1R
1J
1&
1#
1S
19
b100 l
b00000000000000000000000000000000 ;
#246
0R
0J
0&
0#
0S
09
#251
b00000000001000001010000110110011 -
1X
b00000000001000001010000110110011 C
1R
1J
1&
1S
0N
01
b000000000101 d
1#
1e
19
b000 l
b00000000000000000000000000010100 +
#256
0R
0J
0&
0#
0S
09
#261
1B
0X
1R
1J
1&
1S
0K
b010 T
1c
b00000000001000001010000110110011 "
1#
0e
19
b001 l
1O
#266
0R
0J
0&
0#
0S
09
#271
0B
1R
1J
1&
1#
1S
19
b010 l
0O
1,
0n
#276
0R
0J
0&
0#
0S
09
#281
1R
1J
1&
1#
1S
19
b011 l
b00000000000000000000000000000001 i
b00000000000000000000000000000001 _
#286
0R
0J
0&
0#
0S
09
#291
1N
11
1R
1J
1&
1#
1S
19
b100 l
b00000000000000000000000000000001 b
b00000000000000000000000000000001 ;
#296
0R
0J
0&
0#
0S
09
#301
b00000000001000001011000110110011 -
1X
b00000000001000001011000110110011 C
1R
1J
1&
1S
b00000000000000000000000000000000 b
0N
01
b000000000110 d
1#
1e
19
b000 l
b00000000000000000000000000011000 +
#306
0R
0J
0&
0#
0S
09
#311
1B
0X
1R
1J
1&
1S
b011 T
10
0c
b00000000001000001011000110110011 "
1#
0e
19
b001 l
1O
#316
0R
0J
0&
0#
0S
09
#321
0B
1R
1J
1&
1#
1S
19
1H
b010 l
0O
0,
#326
0R
0J
0&
0#
0S
09
#331
1R
1J
1&
1#
1S
19
b011 l
#336
0R
0J
0&
0#
0S
09
#341
1N
11
1R
1J
1&
1#
1S
19
b100 l
b00000000000000000000000000000001 b
#346
0R
0J
0&
0#
0S
09
#351
b00000000001000001001000110110011 -
1X
b00000000001000001001000110110011 C
1R
1J
1&
1S
b00000000000000000000000000000000 b
0N
01
b000000000111 d
1#
1e
19
b000 l
b00000000000000000000000000011100 +
#356
0R
0J
0&
0#
0S
09
#361
1B
0X
1R
1J
1&
1S
17
b001 T
00
b00000000001000001001000110110011 "
1#
0e
19
b001 l
1O
#366
0R
0J
0&
0#
0S
09
#371
0B
1R
1J
1&
1#
1S
19
0H
1Z
b010 l
0O
#376
0R
0J
0&
0#
0S
09
#381
1R
1J
1&
1#
1S
19
b011 l
b00000000000000000001010000000000 i
b00000000000000000001010000000000 _
#386
0R
0J
0&
0#
0S
09
#391
1N
11
1R
1J
1&
1#
1S
19
b100 l
b00000000000000000001010000000000 b
b00000000000000000001010000000000 ;
#396
0R
0J
0&
0#
0S
09
#401
b00000000001000001101000110110011 -
1X
b00000000001000001101000110110011 C
1R
1J
1&
1S
b00000000000000000000000000000000 b
0N
01
b000000001000 d
1#
1e
19
b000 l
b00000000000000000000000000100000 +
#406
0R
0J
0&
0#
0S
09
#411
1B
0X
1R
1J
1&
1S
07
b101 T
b00000000001000001101000110110011 "
1#
0e
19
b001 l
1O
1P
#416
0R
0J
0&
0#
0S
09
#421
0B
1R
1J
1Y
1&
1S
1#
19
0Z
b010 l
0O
#426
0R
0J
0&
0#
0S
09
#431
1R
1J
1&
1#
1S
19
b011 l
b00000000000000000000000000000000 i
b00000000000000000000000000000000 _
#436
0R
0J
0&
0#
0S
09
#441
1N
11
1R
1J
1&
1#
1S
19
b100 l
b00000000000000000000000000000000 ;
#446
0R
0J
0&
0#
0S
09
#451
b01000000001000001101000110110011 -
1X
b01000000001000001101000110110011 C
1R
1J
1&
1S
0N
01
b000000001001 d
1#
1e
19
b000 l
b00000000000000000000000000100100 +
#456
0R
0J
0&
0#
0S
09
#461
1B
b0000010000000010 <
0X
1R
1J
1&
1S
1L
b00000000000000000000010000000010 !
b01000000001000001101000110110011 "
1#
0e
19
b001 l
1O
b0100000 :
0P
#466
0R
0J
0&
0#
0S
09
#471
0B
1R
1J
0Y
12
1&
1S
1#
19
b010 l
0O
#476
0R
0J
0&
0#
0S
09
#481
1R
1J
1&
1#
1S
19
b011 l
#486
0R
0J
0&
0#
0S
09
#491
1N
11
1R
1J
1&
1#
1S
19
b100 l
#496
0R
0J
0&
0#
0S
09
#501
b00000000001000001100000110110011 -
1X
b00000000001000001100000110110011 C
1R
1J
1&
1S
0N
01
b000000001010 d
1#
1e
19
b000 l
b00000000000000000000000000101000 +
#506
0R
0J
0&
0#
0S
09
#511
1B
b0000000000000010 <
0X
1R
1J
1&
1S
1=
0L
b00000000000000000000000000000010 !
b100 T
b00000000001000001100000110110011 "
1#
0e
19
b001 l
1O
b0000000 :
#516
0R
0J
0&
0#
0S
09
#521
0B
1R
1J
1&
02
1S
1#
1*
19
b010 l
0O
#526
0R
0J
0&
0#
0S
09
#531
1R
1J
1&
1#
1S
19
b011 l
b00000000000000000000000000001111 i
b00000000000000000000000000001111 _
#536
0R
0J
0&
0#
0S
09
#541
1N
11
1R
1J
1&
1#
1S
19
b100 l
b00000000000000000000000000001111 b
b00000000000000000000000000001111 ;
#546
0R
0J
0&
0#
0S
09
#551
b00000000001000001110000110110011 -
1X
b00000000001000001110000110110011 C
1R
1J
1&
1S
b00000000000000000000000000000000 b
0N
01
b000000001011 d
1#
1e
19
b000 l
b00000000000000000000000000101100 +
#556
0R
0J
0&
0#
0S
09
#561
1B
0X
1R
1J
1&
1S
0=
b110 T
b00000000001000001110000110110011 "
1#
0e
19
1$
b001 l
1O
#566
0R
0J
0&
0#
0S
09
#571
0B
1R
1J
1&
1#
1S
0*
19
16
b010 l
0O
#576
0R
0J
0&
0#
0S
09
#581
1R
1J
1&
1#
1S
19
b011 l
#586
0R
0J
0&
0#
0S
09
#591
1N
11
1R
1J
1&
1#
1S
19
b100 l
b00000000000000000000000000001111 b
