Surfer_Visualization/VCD file examples/task5.vcd
$date
2025-08-31T09:15+0000
$end
$version
0.2
$end
$comment

$end
$timescale 1ns  $end
$scope module HazardDetectionRV32I $end
 $var wire 1 } core $end
 $var wire 1 ", clock $end
 $var wire 32 ": io_result $end
 $var wire 1 "g reset $end
  $scope module core.WBBarrier $end
  $upscope $end
  $scope module core.IDBarrier $end
  $upscope $end
  $scope module core.EX $end
  $upscope $end
  $scope module core.IFBarrier $end
  $upscope $end
  $scope module core.IF $end
  $upscope $end
  $scope module core.ID $end
  $upscope $end
  $scope module core $end
   $var wire 1 $ reset $end
   $var wire 1 ' IFBarrier $end
   $var wire 1 * FU $end
   $var wire 1 3 EXBarrier $end
   $var wire 1 6 WB $end
   $var wire 32 8 pc_id $end
   $var wire 1 [ MEMBarrier $end
   $var wire 1 d EX $end
   $var wire 32 j pc_if $end
   $var wire 1 n IDBarrier $end
   $var wire 1 "" regFile $end
   $var wire 1 "# clock $end
   $var wire 1 "( ID $end
   $var wire 32 ". pc_wb $end
   $var wire 32 "0 io_check_res $end
   $var wire 1 "W WBBarrier $end
   $var wire 32 "^ pc_ex $end
   $var wire 32 "e pc_mem $end
   $var wire 1 "n IF $end
    $scope module EXBarrier $end
     $var wire 32 ! io_inAluResult $end
     $var wire 32 ? io_outAluResult $end
     $var wire 32 @ io_inst_in $end
     $var wire 32 A io_pc_out $end
     $var wire 32 I io_inst_out $end
     $var wire 32 P pcReg $end
     $var wire 1 V reset $end
     $var wire 32 ] aluResult $end
     $var wire 5 f io_outRD $end
     $var wire 5 z io_inRD $end
     $var wire 32 ~ io_pc_in $end
     $var wire 5 "? rd $end
     $var wire 32 "R instReg $end
     $var wire 1 "Z clock $end
    $upscope $end
    $scope module regFile $end
     $var wire 32 " regFile_24 $end
     $var wire 32 # regFile_30 $end
     $var wire 32 & regFile_8 $end
     $var wire 32 ( regFile_18 $end
     $var wire 32 / regFile_27 $end
     $var wire 32 1 regFile_12 $end
     $var wire 32 4 io_req_3_data $end
     $var wire 32 9 regFile_15 $end
     $var wire 32 ; io_resp_1_data $end
     $var wire 32 S regFile_1 $end
     $var wire 32 X regFile_4 $end
     $var wire 32 Y io_resp_2_data $end
     $var wire 32 _ regFile_14 $end
     $var wire 32 ` regFile_20 $end
     $var wire 32 a regFile_29 $end
     $var wire 32 e regFile_23 $end
     $var wire 32 p regFile_7 $end
     $var wire 32 q regFile_17 $end
     $var wire 32 x regFile_11 $end
     $var wire 5 { io_req_1_addr $end
     $var wire 32 | regFile_26 $end
     $var wire 1 "% io_req_3_wr_en $end
     $var wire 1 "* clock $end
     $var wire 32 "- regFile_6 $end
     $var wire 5 "4 io_req_2_addr $end
     $var wire 32 "5 regFile_31 $end
     $var wire 32 "6 regFile_0 $end
     $var wire 32 "7 regFile_9 $end
     $var wire 32 "@ regFile_19 $end
     $var wire 32 "A regFile_25 $end
     $var wire 32 "F regFile_28 $end
     $var wire 32 "J regFile_13 $end
     $var wire 32 "L regFile_3 $end
     $var wire 32 "Q regFile_16 $end
     $var wire 32 "S regFile_22 $end
     $var wire 5 "[ io_req_3_addr $end
     $var wire 32 "] regFile_10 $end
     $var wire 32 "i regFile_2 $end
     $var wire 32 "k regFile_21 $end
     $var wire 32 "o regFile_5 $end
    $upscope $end
    $scope module FU $end
     $var wire 2 % forwardA $end
     $var wire 2 C io_forwardB $end
     $var wire 5 l io_inRD_mem $end
     $var wire 5 "' io_inRD_wb $end
     $var wire 2 ") io_forwardA $end
     $var wire 5 "T io_inRS2 $end
     $var wire 2 "a forwardB $end
     $var wire 5 "p io_inRS1 $end
    $upscope $end
    $scope module ID $end
     $var wire 32 ) io_operandB $end
     $var wire 32 : io_instr $end
     $var wire 32 < io_regFileResp_B_data $end
     $var wire 5 D io_rd $end
     $var wire 5 M io_rs1 $end
     $var wire 5 b rs2 $end
     $var wire 32 g io_operandA $end
     $var wire 5 o io_regFileReq_A_addr $end
     $var wire 7 t funct7 $end
     $var wire 8 "/ io_uop $end
     $var wire 5 "1 io_regFileReq_B_addr $end
     $var wire 7 "B opcode $end
     $var wire 3 "E funct3 $end
     $var wire 5 "G rs1 $end
     $var wire 5 "b io_rs2 $end
     $var wire 12 "h imm $end
     $var wire 32 "u io_regFileResp_A_data $end
    $upscope $end
    $scope module MEMBarrier $end
     $var wire 32 + io_pc_in $end
     $var wire 1 - reset $end
     $var wire 5 0 io_inRD $end
     $var wire 32 5 io_inst_out $end
     $var wire 32 F pcReg $end
     $var wire 32 G io_outAluResult $end
     $var wire 32 s instReg $end
     $var wire 32 "< io_inAluResult $end
     $var wire 1 "P clock $end
     $var wire 32 "X io_pc_out $end
     $var wire 32 "Y aluResult $end
     $var wire 5 "d rd $end
     $var wire 32 "l io_inst_in $end
     $var wire 5 "v io_outRD $end
    $upscope $end
    $scope module IDBarrier $end
     $var wire 32 , io_outOperandA $end
     $var wire 32 . pcReg $end
     $var wire 5 2 io_outRD $end
     $var wire 32 > io_pc_in $end
     $var wire 5 H io_inRD $end
     $var wire 32 K io_inOperandA $end
     $var wire 5 T rs1 $end
     $var wire 5 W io_outRS1 $end
     $var wire 5 i io_inRS2 $end
     $var wire 32 k io_inst_in $end
     $var wire 32 "! instReg $end
     $var wire 8 "$ io_outUOP $end
     $var wire 32 "& operandB $end
     $var wire 5 "+ io_inRS1 $end
     $var wire 8 "9 uop $end
     $var wire 5 "= rd $end
     $var wire 1 "> clock $end
     $var wire 32 "K io_outOperandB $end
     $var wire 8 "M io_inUOP $end
     $var wire 32 "N io_pc_out $end
     $var wire 32 "_ io_inst_out $end
     $var wire 32 "` io_inOperandB $end
     $var wire 32 "f operandA $end
     $var wire 5 "m io_outRS2 $end
     $var wire 1 "s reset $end
     $var wire 5 "t rs2 $end
    $upscope $end
    $scope module WB $end
     $var wire 5 7 io_regFileReq_addr $end
     $var wire 1 r io_regFileReq_wr_en $end
     $var wire 32 y io_regFileReq_data $end
     $var wire 5 "2 io_rd $end
     $var wire 32 "3 io_check_res $end
     $var wire 32 "j io_aluResult $end
    $upscope $end
    $scope module IF $end
     $var wire 1 h clock $end
     $var wire 32 m PC $end
     $var wire 32 "; io_pc $end
     $var wire 1 "I reset $end
     $var wire 32 "c IMem $end
     $var wire 32 "r io_instr $end
      $scope module IMem $end
        $scope module io_instr_MPORT $end
         $var wire 32 = data $end
         $var wire 1 B en $end
         $var wire 1 "H clk $end
         $var wire 12 "\ addr $end
        $upscope $end
      $upscope $end
    $upscope $end
    $scope module EX $end
     $var wire 32 E io_operandB $end
     $var wire 8 c io_uop $end
     $var wire 32 u io_aluResult $end
     $var wire 32 v io_operandA $end
    $upscope $end
    $scope module WBBarrier $end
     $var wire 32 J io_outAluResult $end
     $var wire 32 N io_inAluResult $end
     $var wire 5 Q io_outRD $end
     $var wire 32 R instReg $end
     $var wire 1 U clock $end
     $var wire 32 Z io_pc_in $end
     $var wire 32 \ io_inst_out $end
     $var wire 32 w io_inst_in $end
     $var wire 5 "8 rd $end
     $var wire 32 "C io_pc_out $end
     $var wire 32 "D aluResult $end
     $var wire 32 "O pcReg $end
     $var wire 1 "U reset $end
     $var wire 5 "q io_inRD $end
    $upscope $end
    $scope module IFBarrier $end
     $var wire 32 L io_pc_out $end
     $var wire 32 O io_pc_in $end
     $var wire 32 ^ io_inst_out $end
     $var wire 32 "V io_inst_in $end
    $upscope $end
  $upscope $end
  $scope module core.regFile $end
  $upscope $end
  $scope module core.MEMBarrier $end
  $upscope $end
  $scope module core.EXBarrier $end
  $upscope $end
  $scope module core.WB $end
  $upscope $end
  $scope module core.FU $end
  $upscope $end
$upscope $end
$enddefinitions $end
$dumpvars
b00000000000000000000000000000000 Y
0""
b00000000000000000000000000000000 <
b000000000000 "h
b00000000000000000000000000000000 "j
b00000 "=
0"P
b00000 D
b00000 "T
0"g
0V
b00000000000000000000000000000000 O
b00000000000000000000000000000000 :
b00 %
b00000000000000000000000000000000 "`
b00000000000000000000000000000000 `
b00000000000000000000000000000000 K
b00000000000000000000000000000000 ".
b00000000000000000000000000000000 w
1B
b00000000000000000000000000000000 E
b000000000000 "\
0"#
0[
b000 "E
0"n
b00000 "[
0r
b00000000000000000000000000000000 s
b00000000000000000000000000000000 A
b00000000000000000000000000000000 "u
b00000000000000000000000000000000 "X
b00000000000000000000000000000000 "C
b00000000000000000000000000000000 "&
b00000000000000000000000000000000 ;
b00 C
b00000000000000000000000000000000 "o
b00000 "t
b00000 2
0"U
b00000000000000000000000000000000 "R
b00000000000000000000000000000000 Z
b00 "a
b00000 {
b00000000000000000000000000000000 (
b00000000000000000000000000000000 q
b00000 "'
b00000000000000000000000000000000 ?
06
b00000 "p
b00000000000000000000000000000000 "k
b00000000000000000000000000000000 "N
b00000000000000000000000000000000 k
b00000000000000000000000000000000 9
b00000000000000000000000000000000 m
b00000 "8
b00000000000000000000000000000000 e
b00000000000000000000000000000000 P
b00000000000000000000000000000000 |
b00000000000000000000000000000000 "5
0"Z
b00000000000000000000000000000000 J
b0000000 "B
0"(
b00000000000000000000000000000000 "L
b00000000000000000000000000000000 "D
0"*
b00000000000000000000000000000000 /
b00000000 "M
b00000 o
b00000000000000000000000000000000 )
b00000 "b
b00000000000000000000000000000000 "r
b00000000000000000000000000000000 "]
b00000000000000000000000000000000 "@
b00000 i
b00000 7
b00000 "G
b00000000000000000000000000000000 _
b00000000000000000000000000000000 "<
b00000 H
b00000 "m
b00000000000000000000000000000000 "S
b00000000000000000000000000000000 p
b00000000000000000000000000000000 "6
b00000000000000000000000000000000 S
b00000000000000000000000000000000 "!
b00000000000000000000000000000000 >
b00000000000000000000000000000000 !
b00000000000000000000000000010011 "c
b00000000000000000000000000000000 j
0"H
b00000000000000000000000000000000 8
b00000000000000000000000000000000 #
b00000000000000000000000000000000 "l
b00000 "q
b00000000000000000000000000000000 "O
b00000000000000000000000000000000 ":
b00000000 "$
b00000000000000000000000000000000 "f
b00000000000000000000000000000000 "Q
b00000 z
b00000 "1
b00000000000000000000000000000000 I
b00000000000000000000000000000000 4
03
b00000000000000000000000000000000 "K
b00000 W
b00000000000000000000000000000000 .
0-
b00000000000000000000000000000000 "0
b00000 Q
b00000000 "9
b00000000000000000000000000000000 y
0"W
b00000000000000000000000000000000 \
b00000000000000000000000000000000 G
0"%
b00000000000000000000000000000000 "^
b00000000000000000000000000000000 "A
b00000000000000000000000000000000 ^
b00000000000000000000000000000000 ,
b00000 M
b00000000000000000000000000000000 u
0">
b00000000000000000000000000000000 X
b00000000000000000000000000000000 ";
b00000 l
b00000 "+
b00000000000000000000000000000000 &
b00000000 "/
0n
b00000 f
b00000000000000000000000000000000 =
b00000 "v
b00000000 c
0'
b00000000000000000000000000000000 "i
b00000000000000000000000000000000 "7
b00000000000000000000000000000000 "
b00 ")
b00000000000000000000000000000000 "V
0U
0"I
b00000 b
b00000000000000000000000000000000 N
0",
b00000 0
b00000000000000000000000000000000 "e
b0000000 t
0d
b00000000000000000000000000000000 "3
b00000 "d
b00000000000000000000000000000000 "J
b00000000000000000000000000000000 g
b00000000000000000000000000000000 R
b00000 "2
b00000000000000000000000000000000 "-
b00000000000000000000000000000000 5
b00000000000000000000000000000000 ~
0}
0h
b00000 "4
b00000000000000000000000000000000 a
b00000000000000000000000000000000 L
0"s
b00000000000000000000000000000000 x
b00000000000000000000000000000000 "F
b00000000000000000000000000000000 F
b00000000000000000000000000000000 1
b00000000000000000000000000000000 ]
b00000000000000000000000000000000 @
0*
b00000000000000000000000000000000 +
b00000000000000000000000000000000 "_
b00000 T
b00000 "?
0$
b00000000000000000000000000000000 "Y
b00000000000000000000000000000000 v
$end
#0
1-
b11111111111111111111111111111111 u
b0010011 "B
1"I
1"%
1"g
b00000000000000000000000000010011 =
b11111111111111111111111111111111 !
1r
b00010000 "/
b00000000000000000000000000010011 k
1V
1"U
1$
b00010000 "M
b00000000000000000000000000010011 "V
b00000000000000000000000000010011 ^
b00000000000000000000000000010011 "r
b00000000000000000000000000010011 :
1"s
#1
b00000000000000000000000000000000 u
1",
1"P
b00010000 "$
1h
1"Z
b00000000000000000000000000000000 !
b00010000 c
1">
1U
1"#
1"*
b00010000 "9
1"H
#6
0-
0",
0"P
0"I
0h
0"g
0"Z
0">
0U
0V
0"U
0$
0"#
0"*
0"H
0"s
#11
1",
b00000000000000000000000000010011 "_
1h
b00000000000000000000000000000100 ";
b00100 i
b00000000000000000000000000000100 L
1"Z
b00100 b
1">
b00000000000000000000000000010011 "!
b00001 H
1"#
b00000000010000000000000010010011 "V
b00000000010000000000000010010011 ^
1"P
b00001 D
b00100 "4
b000000000100 "h
b00000000010000000000000010010011 =
b00000000000000000000000000000100 "`
b00000000000000000000000000000100 >
b00000000000000000000000000000100 )
b00100 "b
1U
b00000000000000000000000000010011 @
b00000000010000000000000010010011 k
b00100 "1
b000000000001 "\
b00000000000000000000000000000100 O
b00000000010000000000000010010011 :
1"*
b00000000000000000000000000000100 m
1"H
b00000000010000000000000010010011 "r
#16
0",
0"P
0">
0U
0h
0"#
0"*
0"H
0"Z
#21
1",
b00000000010000000000000010010011 "_
b00100 "t
1h
b00000000000000000000000000001000 ";
b00000000000000000000000000000100 ~
b00000000000000000000000000000100 "&
b00101 i
b00000000000000000000000000001000 L
b00000000000000000000000000000100 j
1"Z
b00101 b
b00000000000000000000000000010011 "R
b00001 "=
1">
b00000000010000000000000010010011 "!
b00100 "T
b00001 2
b00001 z
b00010 H
1"#
b00000000010100000000000100010011 "V
b00000000010100000000000100010011 ^
b00000000000000000000000000010011 I
b00000000000000000000000000000100 "N
b00000000000000000000000000010011 "l
b00100 "m
b00000000000000000000000000000100 u
1"P
b00000000000000000000000000000100 .
b00010 D
b00101 "4
b00000000000000000000000000000100 E
b000000000101 "h
b00000000010100000000000100010011 =
b00000000000000000000000000000101 "`
b00000000000000000000000000000100 "K
b00000000000000000000000000001000 >
b00000000000000000000000000000101 )
b00000000000000000000000000000100 !
b00101 "b
1U
b00000000010000000000000010010011 @
b00000000010100000000000100010011 k
b00101 "1
b000000000010 "\
b00000000000000000000000000001000 O
b00000000010100000000000100010011 :
1"*
b00000000000000000000000000001000 m
1"H
b00000000010100000000000100010011 "r
#26
0",
0"P
0">
0U
0h
0"#
0"*
0"H
0"Z
#31
b00001 f
b00101 "t
b00000000010100000000000100010011 "_
b0110011 "B
1h
b00000000000000000000000000000100 "<
b00000000000000000000000000001000 j
b00010 b
b00001 M
b00001 0
1">
b00000000010100000000000100010011 "!
b00010 2
b00000001 "M
b00001 {
1"#
b00000000001000001000000110110011 ^
b00000000010000000000000010010011 I
b00000000010000000000000010010011 "l
b00000000000000000000000000000100 A
b00000000000000000000000000000101 u
b00000000000000000000000000001000 .
b00000000000000000000000000010011 w
b00010 "4
b00001 o
b00000000000000000000000000000101 E
b000000000010 "h
b00000000001000001000000110110011 =
b00000000000000000000000000000000 "`
b00000000000000000000000000000101 "K
b00000000000000000000000000000100 ?
b00010 "b
b00000000000000000000000000010011 s
b00000000001000001000000110110011 k
b000000000011 "\
b00001 "G
1"*
b00000000000000000000000000001100 m
b00000000000000000000000000000100 P
1",
b00000000000000000000000000010011 5
b00000000000000000000000000001100 ";
b00000000000000000000000000001000 ~
b00000000000000000000000000000101 "&
b00010 i
b00000000000000000000000000001100 L
1"Z
b00000000010000000000000010010011 "R
b00010 "=
b00101 "T
b00001 "?
b00010 z
b00000000000000000000000000000100 ]
b00011 H
b00000000001000001000000110110011 "V
b00000000000000000000000000000100 +
b00000000000000000000000000001000 "N
b00101 "m
1"P
b00011 D
b00000000000000000000000000001100 >
b00000000000000000000000000000000 )
b00000000000000000000000000000101 !
b00000001 "/
1U
b00000000010100000000000100010011 @
b00000000000000000000000000000100 8
b00010 "1
b00001 l
b00000000000000000000000000001100 O
b00000000001000001000000110110011 :
b00000000001000001000000110110011 "r
1"H
b00001 "+
#36
0",
0"P
0">
0U
0h
0"#
0"*
0"H
0"Z
#41
b00010 f
b00010 "t
b00000000001000001000000110110011 "_
b00000000000000000000000000000100 4
b0010011 "B
1h
b00001 "v
b00000000000000000000000000000100 "Y
b00000000000000000000000000000101 "<
b00000000000000000000000000001100 j
b00001 "'
b11111 b
b00000 M
b00001 "p
b00010 0
1">
b00000000000000000000000000000100 y
b00000000001000001000000110110011 "!
b00000000000000000000000000000100 G
b00011 2
b00000000000000000000000000000100 "j
b00010000 "M
b00000 {
1"#
b01111111111100000000001000010011 ^
b00000000010100000000000100010011 I
b00000000010100000000000100010011 "l
b00000000000000000000000000001000 A
b00001 "d
b00001 "2
b00000000000000000000000000001001 u
b01 C
b00000000000000000000000000001100 .
b00000000010000000000000010010011 w
b11111 "4
b00000 o
b00000000000000000000000000000100 Z
b011111111111 "h
b01111111111100000000001000010011 =
b00000000000000000000011111111111 "`
b00000000000000000000000000000000 "K
b00000000000000000000000000010011 \
b00001 T
b00000000000000000000000000000101 ?
b11111 "b
b00000000010000000000000010010011 s
b01111111111100000000001000010011 k
b000000000100 "\
b00000 "G
1"*
b00000000000000000000000000010000 m
b00000000000000000000000000001000 P
b00000000000000000000000000000100 "^
1",
b00000001 "$
b00000000000000000000000000010011 R
b00000000010000000000000010010011 5
b00000000000000000000000000000100 "X
b00000000000000000000000000010000 ";
b00000000000000000000000000001100 ~
b00000000000000000000000000000000 "&
b11111 i
b00000000000000000000000000010000 L
b00001 7
1"Z
b00000000010100000000000100010011 "R
b00011 "=
b00000001 c
b00000000000000000000000000000100 N
b00001 "q
b00000000000000000000000000000100 F
b00010 "T
b00010 "?
b00011 z
b00000000000000000000000000000101 ]
b00100 H
b01111111111100000000001000010011 "V
b00000000000000000000000000001000 +
b00000000000000000000000000001100 "N
b00000001 "9
b0111111 t
b00010 "m
1"P
b10 %
b00000000000000000000000000000100 "3
b00000000000000000000000000000100 v
b00100 D
b00000000000000000000000000010000 >
b00000000000000000000011111111111 )
b01 "a
b00000000000000000000000000001001 !
b00010000 "/
1U
b00000000001000001000000110110011 @
b00000000000000000000000000001000 8
b00001 "[
b11111 "1
b00010 l
b00001 W
b10 ")
b00000000000000000000000000010000 O
b01111111111100000000001000010011 :
b01111111111100000000001000010011 "r
1"H
b00000 "+
#46
0",
0"P
0">
0U
0h
0"#
0"*
0"H
0"Z
#51
b00011 f
b00001 Q
b11111 "t
b01111111111100000000001000010011 "_
b00000000000000000000000000000101 4
1h
b00000000000000000000000000000100 S
b00010 "v
b00000000000000000000000000000101 "Y
b00000000000000000000000000001001 "<
b00000000000000000000000000010000 j
b00010 "'
b10000 b
b00000 "p
b00011 0
1">
b00000000000000000000000000000101 y
b01111111111100000000001000010011 "!
b00000000000000000000000000000101 G
b00100 2
b00000000000000000000000000000101 "j
b00001 "8
1"#
b00000001000000000000001010010011 ^
b00000000001000001000000110110011 I
b00000000001000001000000110110011 "l
b00000000000000000000000000001100 A
b00010 "d
b00000000000000000000000000000100 "O
b00000000000000000000000000000100 ":
b00010 "2
b00000000000000000000011111111111 u
b00 C
b00000000000000000000000000010000 .
b00000000010100000000000100010011 w
b10000 "4
b00000000000000000000000000001000 Z
b00000000000000000000011111111111 E
b000000010000 "h
b00000001000000000000001010010011 =
b00000000000000000000000000010000 "`
b00000000000000000000011111111111 "K
b00000000010000000000000010010011 \
b00000 T
b00000000000000000000000000001001 ?
b10000 "b
b00000000000000000000000000000100 "0
b00000000010100000000000100010011 s
b00000001000000000000001010010011 k
b000000000101 "\
1"*
b00000000000000000000000000010100 m
b00000000000000000000000000001100 P
b00000000000000000000000000001000 "^
1",
b00010000 "$
b00000000010000000000000010010011 R
b00000000000000000000000000000100 J
b00000000010100000000000100010011 5
b00000000000000000000000000001000 "X
b00000000000000000000000000000100 "C
b00000000000000000000000000010100 ";
b00000000000000000000000000010000 ~
b00000000000000000000011111111111 "&
b10000 i
b00000000000000000000000000010100 L
b00010 7
1"Z
b00000000001000001000000110110011 "R
b00100 "=
b00010000 c
b00000000000000000000000000000101 N
b00010 "q
b00000000000000000000000000001000 F
b11111 "T
b00011 "?
b00100 z
b00000000000000000000000000001001 ]
b00101 H
b00000001000000000000001010010011 "V
b00000000000000000000000000001100 +
b00000000000000000000000000010000 "N
b00010000 "9
b0000000 t
b11111 "m
b00000000000000000000000000000100 "e
1"P
b00 %
b00000000000000000000000000000101 "3
b00000000000000000000000000000000 v
b00101 D
b00000000000000000000000000010100 >
b00000000000000000000000000010000 )
b00 "a
b00000000000000000000011111111111 !
b00000000000000000000000000000100 "D
1U
b01111111111100000000001000010011 @
b00000000000000000000000000001100 8
b00010 "[
b10000 "1
b00011 l
b00000 W
b00 ")
b00000000000000000000000000010100 O
b00000001000000000000001010010011 :
b00000001000000000000001010010011 "r
1"H
#56
0",
0"P
0">
0U
0h
0"#
0"*
0"H
0"Z
#61
b00100 f
b00010 Q
b10000 "t
b00000001000000000000001010010011 "_
b00000000000000000000000000001001 4
b0110011 "B
1h
b00011 "v
b00000000000000000000000000001001 "Y
b00000000000000000000011111111111 "<
b00000000000000000000000000010100 j
b00011 "'
b00101 b
b00100 M
b00100 0
1">
b00000000000000000000000000001001 y
b00000001000000000000001010010011 "!
b00000000000000000000000000001001 G
b00101 2
b00000000000000000000000000001001 "j
b00000010 "M
b00010 "8
1"#
b00100 {
b01000000010100100000001100110011 ^
b01111111111100000000001000010011 I
b01111111111100000000001000010011 "l
b00000000000000000000000000010000 A
b00011 "d
b00000000000000000000000000001000 "O
b00000000000000000000000000000101 ":
b00011 "2
b00000000000000000000000000010000 u
b00000000000000000000000000010100 .
b00000000001000001000000110110011 w
b00101 "4
b00100 o
b00000000000000000000000000001100 Z
b00000000000000000000000000010000 E
b010000000101 "h
b01000000010100100000001100110011 =
b00000000000000000000000000000000 "`
b00000000000000000000000000010000 "K
b00000000000000000000000000000100 ".
b00000000010100000000000100010011 \
b00000000000000000000011111111111 ?
b00101 "b
b00000000000000000000000000000101 "0
b00000000001000001000000110110011 s
b01000000010100100000001100110011 k
b000000000110 "\
b00100 "G
1"*
b00000000000000000000000000011000 m
b00000000000000000000000000010000 P
b00000000000000000000000000001100 "^
1",
b00000000010100000000000100010011 R
b00000000000000000000000000000101 J
b00000000001000001000000110110011 5
b00000000000000000000000000001100 "X
b00000000000000000000000000001000 "C
b00000000000000000000000000011000 ";
b00000000000000000000000000010100 ~
b00000000000000000000000000010000 "&
b00101 i
b00000000000000000000000000011000 L
b00011 7
1"Z
b01111111111100000000001000010011 "R
b00101 "=
b00000000000000000000000000001001 N
b00011 "q
b00000000000000000000000000001100 F
b00000000000000000000000000000101 "i
b10000 "T
b00100 "?
b00101 z
b00000000000000000000011111111111 ]
b00110 H
b01000000010100100000001100110011 "V
b00000000000000000000000000010000 +
b00000000000000000000000000010100 "N
b0100000 t
b10000 "m
b00000000000000000000000000001000 "e
1"P
b00000000000000000000000000001001 "3
b00110 D
b00000000000000000000000000011000 >
b00000000000000000000000000000000 )
b00000000000000000000000000010000 !
b00000000000000000000000000000101 "D
b00000010 "/
1U
b00000001000000000000001010010011 @
b00000000000000000000000000010000 8
b00011 "[
b00101 "1
b00100 l
b00000000000000000000000000011000 O
b01000000010100100000001100110011 :
b01000000010100100000001100110011 "r
1"H
b00100 "+
#66
0",
0"P
0">
0U
0h
0"#
0"*
0"H
0"Z
#71
b00101 f
b00000000000000000000011111111111 4
b00100 "v
b00000000000000000000000000011000 j
b00011 b
b00110 M
b00100 "p
b00101 0
1">
b00000000000000000000011111111111 y
b01000000010100100000001100110011 "!
b00000000000000000000011111111111 G
b00000000000000000000011111111111 "j
b00000011 "M
b00110 {
1"#
b00000000001100110100001110110011 ^
b00000001000000000000001010010011 I
b00000001000000000000001010010011 "l
b00100 "d
b00000000000000000000000000001100 "O
b00000000000000000000000000001001 ":
b00100 "2
b00000000000000000000011111101111 u
b01 C
b00011 "4
b00000000001000001000000110110011 \
b00011 "b
b100 "E
b00000000000000000000000000011100 m
b00000000000000000000000000010000 "^
1",
b00000000001000001000000110110011 R
b00000000000000000000000000001001 J
b01111111111100000000001000010011 5
b00000000000000000000000000010000 "X
b00000000000000000000000000001100 "C
b00000000000000000000000000011100 ";
b00000000000000000000000000011000 ~
b00000000000000000000000000000000 "&
b00000000000000000000000000011100 L
1"Z
b00110 "=
b00000010 c
b00000000000000000000011111111111 N
b00000000000000000000000000010000 F
b00101 "T
b00101 "?
b00000000000000000000000000010000 ]
b00000000000000000000000000010100 +
b00000000000000000000000000011000 "N
b00101 "m
b00000000000000000000011111111111 v
b00000000000000000000000000001001 Y
1U
b01000000010100100000001100110011 @
b00011 "1
b00101 l
b00000000000000000000000000011100 O
b00000000001100110100001110110011 :
b00000000001100110100001110110011 "r
b00110 "+
b00011 Q
b00000000000000000000000000001001 <
b00101 "t
b01000000010100100000001100110011 "_
1h
b00000000000000000000011111111111 "Y
b00000000000000000000000000010000 "<
b00100 "'
b00110 2
b00011 "8
b00000000000000000000000000010100 A
b00000000000000000000000000011000 .
b01111111111100000000001000010011 w
b00110 o
b00000000000000000000000000010000 Z
b000000000011 "h
b00000000001100110100001110110011 =
b00000000000000000000000000001001 "`
b00000000000000000000000000000000 "K
b00000000000000000000000000001000 ".
b00100 T
b00000000000000000000000000010000 ?
b00000000000000000000000000001001 "0
b01111111111100000000001000010011 s
b00000000001100110100001110110011 k
b000000000111 "\
b00110 "G
1"*
b00000000000000000000000000010100 P
b00000010 "$
b00011 i
b00100 7
b00000001000000000000001010010011 "R
b00100 "q
b00110 z
b00111 H
b00000000001100110100001110110011 "V
b00000010 "9
b0000000 t
b00000000000000000000000000001100 "e
1"P
b10 %
b00000000000000000000011111111111 "3
b00111 D
b00000000000000000000000000011100 >
b00000000000000000000000000001001 )
b01 "a
b00000000000000000000000000001001 "L
b00000000000000000000011111101111 !
b00000000000000000000000000001001 "D
b00000011 "/
b00000000000000000000000000010100 8
b00100 "[
b10 ")
b00100 W
1"H
#76
0",
0"P
0">
0U
0h
0"#
0"*
0"H
0"Z
#81
b00110 f
b00100 Q
b00000000000000000000000000010000 <
b00011 "t
b00000000001100110100001110110011 "_
b00000000000000000000000000010000 4
1h
b00101 "v
b00000000000000000000000000010000 "Y
b00000000000000000000011111101111 "<
b00000000000000000000000000011100 j
b00101 "'
b00101 b
b00110 "p
b00110 0
1">
b00000000000000000000000000010000 y
b00000000001100110100001110110011 "!
b00000000000000000000000000010000 G
b00111 2
b00000000000000000000000000010000 "j
b00000100 "M
b00100 "8
1"#
b00000000010100110110010000110011 ^
b01000000010100100000001100110011 I
b01000000010100100000001100110011 "l
b00000000000000000000000000011000 A
b00101 "d
b00000000000000000000000000010000 "O
b00000000000000000000011111111111 ":
b00101 "2
b00000000000000000000011111100110 u
b00000000000000000000011111111111 X
b00 C
b00000000000000000000000000011100 .
b00000001000000000000001010010011 w
b00101 "4
b00000000000000000000000000010100 Z
b00000000000000000000000000001001 E
b000000000101 "h
b00000000010100110110010000110011 =
b00000000000000000000000000010000 "`
b00000000000000000000000000001001 "K
b00000000000000000000000000001100 ".
b01111111111100000000001000010011 \
b00110 T
b00000000000000000000011111101111 ?
b00101 "b
b110 "E
b00000000000000000000011111111111 "0
b00000001000000000000001010010011 s
b00000000010100110110010000110011 k
b000000001000 "\
1"*
b00000000000000000000000000100000 m
b00000000000000000000000000011000 P
b00000000000000000000000000010100 "^
1",
b00000011 "$
b01111111111100000000001000010011 R
b00000000000000000000011111111111 J
b00000001000000000000001010010011 5
b00000000000000000000000000010100 "X
b00000000000000000000000000010000 "C
b00000000000000000000000000100000 ";
b00000000000000000000000000011100 ~
b00000000000000000000000000001001 "&
b00101 i
b00000000000000000000000000100000 L
b00101 7
1"Z
b01000000010100100000001100110011 "R
b00111 "=
b00000011 c
b00000000000000000000000000010000 N
b00101 "q
b00000000000000000000000000010100 F
b00011 "T
b00110 "?
b00111 z
b00000000000000000000011111101111 ]
b01000 H
b00000000010100110110010000110011 "V
b00000000000000000000000000011000 +
b00000000000000000000000000011100 "N
b00000011 "9
b00011 "m
b00000000000000000000000000010000 "e
1"P
b01 %
b00000000000000000000000000010000 "3
b00000000000000000000011111101111 v
b00000000000000000000000000010000 Y
b01000 D
b00000000000000000000000000100000 >
b00000000000000000000000000010000 )
b00 "a
b00000000000000000000011111100110 !
b00000000000000000000011111111111 "D
b00000100 "/
1U
b00000000001100110100001110110011 @
b00000000000000000000000000011000 8
b00101 "[
b00101 "1
b00110 l
b00110 W
b01 ")
b00000000000000000000000000100000 O
b00000000010100110110010000110011 :
b00000000010100110110010000110011 "r
1"H
#86
0",
0"P
0">
0U
0h
0"#
0"*
0"H
0"Z
